…
| term      |  estimate|  std\_error|  statistic|  p\_value|  conf\_low|  conf\_high|
|:----------|---------:|-----------:|----------:|---------:|----------:|-----------:|
| intercept |   37.2273|      1.5988|    23.2847|    0.0000|    33.9574|     40.4972|
| hp        |   -0.0318|      0.0090|    -3.5187|    0.0015|    -0.0502|     -0.0133|
| wt        |   -3.8778|      0.6327|    -6.1287|    0.0000|    -5.1719|     -2.5837|

``` r
# Regression points. For residual analysis for example
mtcars <- mtcars %>% 
  mutate(cyl = as.factor(cyl))
get_regression_points(mpg ~ hp + cyl, data = mtcars)
```

    ## # A tibble: 32 x 5
    ##      mpg    hp    cyl mpg_hat residual
    ##    <dbl> <dbl> <fctr>   <dbl>    <dbl>
    ##  1  21.0   110      6  20.038    0.962
    ##  2  21.0   110      6  20.038    0.962
    ##  3  22.8    93      4  26.415   -3.615
    ##  4  21.4   110      6  20.038    1.362
    ##  5  18.7   175      8  15.922    2.778
    ##  6  18.1   105      6  20.158   -2.058
    ##  7  14.3   245      8  14.240    0.060
    ##  8  24.4    62      4  27.160   -2.760
    ##  9  22.8    95      4  26.366   -3.566
    ## 10  19.2   123      6  19.726   -0.526
    ## # ... with 22 more rows
…
