Using the moderndive R package for introductory linear regression
…
To address these comments and questions, we’ve included three functions in the moderndive package that take a fitted model object as input and return the same information as summary.lm(), but output in tidyverse-friendly format (Wickham, Averick, et al. 2019). As we’ll discuss in Section , these three functions are merely wrappers to existing functions in the broom package for converting statistical objects into tidy tibbles, but with the introductory statistics student in mind (Robinson and Hayes 2019).

Get a tidy regression table with confidence intervals:

get_regression_table(score_model)
#> # A tibble: 2 x 7
#>   term      estimate std_error statistic p_value lower_ci upper_ci
#>   <chr>        <dbl>     <dbl>     <dbl>   <dbl>    <dbl>    <dbl>
#> 1 intercept    4.46      0.127     35.2    0        4.21     4.71 
#> 2 age         -0.006     0.003     -2.31   0.021   -0.011   -0.001

Get information on each point/observation in your regression, including fitted and predicted values & residuals, in a single data frame:

get_regression_points(score_model)
#> # A tibble: 463 x 5
#>       ID score   age score_hat residual
#>    <int> <dbl> <int>     <dbl>    <dbl>
#>  1     1   4.7    36      4.25    0.452
#>  2     2   4.1    36      4.25   -0.148
#>  3     3   3.9    36      4.25   -0.348
#>  4     4   4.8    36      4.25    0.552
#>  5     5   4.6    59      4.11    0.488
#>  6     6   4.3    59      4.11    0.188
#>  7     7   2.8    59      4.11   -1.31 
#>  8     8   4.1    51      4.16   -0.059
#>  9     9   3.4    51      4.16   -0.759
#> 10    10   4.5    40      4.22    0.276
#> # … with 453 more rows
…
get_regression_points() is a wrapper for broom::augment()

get_regression_summaries is a wrapper for broom::glance()

Why did we take this approach to address the 5 common student questions/comments at the outset of the article?

By writing wrappers to pre-existing functions, instead of creating new custom functions, there is minimal re-inventing the wheel necessary.

In our experience, novice R users had a hard time understanding the broom package function names tidy(), augment(), and glance(). The make them more user-friendly, the moderndive package wrappers have much more intuitively named get_regression_table(), get_regression_points(), and get_regression_summaries().

The variables included in the outputs of the above 3 broom functions are not all applicable to an introductory statistics students and of those that were we found them to be unintuitively named. We therefore cut out some of the variables from the output and renamed some of the remaining variables. For example, compare the outputs of the get_regression_points() wrapper function and the parent broom::augment() function.

get_regression_points(score_model)
#> # A tibble: 463 x 5
#>       ID score   age score_hat residual
#>    <int> <dbl> <int>     <dbl>    <dbl>
#>  1     1   4.7    36      4.25    0.452
#>  2     2   4.1    36      4.25   -0.148
#>  3     3   3.9    36      4.25   -0.348
#>  4     4   4.8    36      4.25    0.552
#>  5     5   4.6    59      4.11    0.488
#>  6     6   4.3    59      4.11    0.188
#>  7     7   2.8    59      4.11   -1.31 
#>  8     8   4.1    51      4.16   -0.059
#>  9     9   3.4    51      4.16   -0.759
#> 10    10   4.5    40      4.22    0.276
#> # … with 453 more rows
broom::augment(score_model)
#> # A tibble: 463 x 9
#>    score   age .fitted .se.fit  .resid    .hat .sigma   .cooksd .std.resid
#>    <dbl> <int>   <dbl>   <dbl>   <dbl>   <dbl>  <dbl>     <dbl>      <dbl>
#>  1   4.7    36    4.25  0.0405  0.452  0.00560  0.542 0.00197        0.837
#>  2   4.1    36    4.25  0.0405 -0.148  0.00560  0.542 0.000212      -0.274
#>  3   3.9    36    4.25  0.0405 -0.348  0.00560  0.542 0.00117       -0.645
#>  4   4.8    36    4.25  0.0405  0.552  0.00560  0.541 0.00294        1.02 
#>  5   4.6    59    4.11  0.0371  0.488  0.00471  0.541 0.00193        0.904
#>  6   4.3    59    4.11  0.0371  0.188  0.00471  0.542 0.000288       0.349
#>  7   2.8    59    4.11  0.0371 -1.31   0.00471  0.538 0.0139        -2.43 
#>  8   4.1    51    4.16  0.0261 -0.0591 0.00232  0.542 0.0000139     -0.109
#>  9   3.4    51    4.16  0.0261 -0.759  0.00232  0.541 0.00229       -1.40 
#> 10   4.5    40    4.22  0.0331  0.276  0.00374  0.542 0.000488       0.510
#> # … with 453 more rows
…
