…
``` r
library(dplyr)
library(tibble)

# Convert rownames to column
mtcars <- mtcars %>%
  rownames_to_column(var = "automobile")

# Fit lm() regression:
mpg_model <- lm(mpg ~ cyl, data = mtcars)

# Get information on all points in regression:
get_regression_points(mpg_model, ID = "automobile")
#> # A tibble: 32 × 5
#>    automobile          mpg   cyl mpg_hat residual
#>    <chr>             <dbl> <dbl>   <dbl>    <dbl>
#>  1 Mazda RX4          21       6    20.6    0.37 
#>  2 Mazda RX4 Wag      21       6    20.6    0.37 
#>  3 Datsun 710         22.8     4    26.4   -3.58 
#>  4 Hornet 4 Drive     21.4     6    20.6    0.77 
#>  5 Hornet Sportabout  18.7     8    14.9    3.82 
#>  6 Valiant            18.1     6    20.6   -2.53 
#>  7 Duster 360         14.3     8    14.9   -0.578
#>  8 Merc 240D          24.4     4    26.4   -1.98 
#>  9 Merc 230           22.8     4    26.4   -3.58 
#> 10 Merc 280           19.2     6    20.6   -1.43 
#> # ℹ 22 more rows
…
