Get correlation value in a tidy way — get_correlation • moderndive
…
# Group by two variables:
un_member_states_2024 %>%
  group_by(continent, income_group_2024) %>%
  get_correlation(formula = life_expectancy_2022 ~ gdp_per_capita, na.rm = TRUE)
#> # A tibble: 21 × 3
#> # Groups:   continent [6]
#>    continent income_group_2024      cor
#>    <fct>     <fct>                <dbl>
#>  1 Africa    Low income           0.321
#>  2 Africa    Lower middle income  0.535
#>  3 Africa    Upper middle income  0.395
#>  4 Africa    High income         NA    
#>  5 Asia      Low income           0.396
#>  6 Asia      Lower middle income  0.527
#>  7 Asia      Upper middle income  0.121
#>  8 Asia      High income          0.415
#>  9 Europe    Lower middle income NA    
#> 10 Europe    Upper middle income -0.320
#> # ℹ 11 more rows
…
