…
    See also

    pennies

    Examples

library(dplyr)
library(ggplot2)

# Take 50 different resamples/bootstraps from the original sample
many_bootstraps <- pennies_sample %>%
  rep_sample_n(size = 40, replace = TRUE, reps = 50)
many_bootstraps
#> # A tibble: 2,000 x 3
#> # Groups:   replicate [50]
#>    replicate  year age_in_2011
#>        <int> <int>       <int>
#>  1         1  1974          37
#>  2         1  1977          34
#>  3         1  1992          19
#>  4         1  1997          14
#>  5         1  1993          18
#>  6         1  1964          47
#>  7         1  1994          17
#>  8         1  1997          14
#>  9         1  1983          28
#> 10         1  1993          18
#> # ... with 1,990 more rows
…
