Get regression points — get_regression_points • moderndive
…
    augment, get_regression_table, get_regression_summaries

    Examples

library(moderndive)
library(dplyr)
library(tibble)

# Fit lm() regression:
mpg_model <- lm(mpg ~ cyl, data = mtcars)

# Get information on all points in regression:
get_regression_points(mpg_model)
#> # A tibble: 32 x 5
#>       ID   mpg   cyl mpg_hat residual
#>    <int> <dbl> <dbl>   <dbl>    <dbl>
#>  1     1  21       6    20.6    0.37 
#>  2     2  21       6    20.6    0.37 
#>  3     3  22.8     4    26.4   -3.58 
#>  4     4  21.4     6    20.6    0.77 
#>  5     5  18.7     8    14.9    3.82 
#>  6     6  18.1     6    20.6   -2.53 
#>  7     7  14.3     8    14.9   -0.578
#>  8     8  24.4     4    26.4   -1.98 
#>  9     9  22.8     4    26.4   -3.58 
#> 10    10  19.2     6    20.6   -1.43 
#> # ... with 22 more rows
…
