A random sample of 40 pennies sampled from the pennies data frame — orig_pennies_sample • moderndive
…
    See also

    pennies

    Examples

library(dplyr)
library(ggplot2)

# Take 50 different resamples/bootstraps from the original sample
many_bootstraps <- orig_pennies_sample %>%
  rep_sample_n(size = 40, replace = TRUE, reps = 50)
many_bootstraps

#> # A tibble: 2,000 x 3
#> # Groups:   replicate [50]
#>    replicate  year age_in_2011
#>        <int> <dbl>       <dbl>
#>  1         1  1986          25
#>  2         1  1974          37
#>  3         1  1997          14
#>  4         1  1993          18
#>  5         1  1988          23
#>  6         1  1996          15
#>  7         1  2004           7
#>  8         1  2004           7
#>  9         1  1985          26
#> 10         1  1961          50
#> # … with 1,990 more rows
…
